,d_evaluation,Argumentativeness,Sentence_Coherence,Represents_Argument,Precision,DCG
1,0.5666666666666667,-0.5,0.5,1.7,-2.0,4.936494657959016
2,-0.15,-2.0,0.3,1.25,-0.0,-3.4076695035662596
3,-0.9833333333333334,-2.0,-0.9,-0.05,-0.0,-3.4076695035662596
4,-0.4833333333333333,-2.0,-0.3,0.85,-0.0,-3.4076695035662596
5,-0.85,-0.5,-1.1,-0.95,-0.75,-0.09859723777543475
6,-0.4333333333333334,-2.0,0.15,0.55,-0.0,-3.4076695035662596
7,1.3877787807814457e-17,-0.3,0.4,-0.1,-0.3333333333333333,0.08068516627612787
8,0.26666666666666666,0.4,0.55,-0.15,-0.75,3.9199945798893454
9,1.9,2.0,1.8,1.9,1.3333333333333333,18.002997617733847
10,-0.5166666666666668,-0.3,-1.05,-0.2,-0.3333333333333333,1.3236347578145349
11,-0.4833333333333334,-1.7,-0.35,0.6,-0.125,-2.855605969191234
26,0.4666666666666667,-1.1,0.9,1.6,-0.125,
27,-0.35000000000000003,0.1,-0.85,-0.3,-0.125,-0.25
28,-0.14999999999999994,0.55,-0.7,-0.3,3.0,9.234829143886547
29,-0.2333333333333333,-1.65,0.1,0.85,-0.125,-1.7926324107910352
30,0.8166666666666667,0.2,0.75,1.5,-0.75,2.15580403746062
31,0.55,0.4,0.45,0.8,3.0,5.573409300063706
32,-0.23333333333333325,-1.45,0.15,0.6,-0.125,0.8155278116123338
33,0.29999999999999993,-0.05,0.65,0.3,-2.0,4.864398519557355
34,0.16666666666666669,-0.3,0.3,0.5,-2.0,0.42578330923885743
35,0.4666666666666667,0.7,0.0,0.7,inf,3.700039547516482
36,-0.6166666666666666,-2.0,-0.05,0.2,-0.0,-3.4076695035662596
37,-0.5999999999999999,-2.0,-0.55,0.75,-0.0,-3.4076695035662596
38,-0.1833333333333333,0.7,-1.1,-0.15,inf,3.621295311915264
39,0.2,1.15,-0.95,0.4,1.75,6.288067026751607
40,-0.06666666666666665,0.5,-0.8,0.1,-0.75,3.8333333333333335
41,-0.3166666666666667,-2.0,0.2,0.85,-0.0,-3.4076695035662596
42,-0.75,-1.15,-0.8,-0.3,-0.3333333333333333,1.5403379149887853
43,-0.4333333333333333,-1.4,-0.25,0.35,-0.125,-1.6898160861057114
44,-0.21666666666666665,-1.7,0.15,0.9,-0.125,-1.6576695035662592
45,-0.7666666666666666,-2.0,-0.65,0.35,-0.0,-3.4076695035662596
46,-0.55,-2.0,-0.2,0.55,-0.0,-3.4076695035662596
47,1.6666666666666667,1.5,1.9,1.6,1.125,11.985138042307813
48,0.7833333333333333,1.0,0.65,0.7,inf,6.675745842069218
49,-0.3833333333333333,-2.0,0.3,0.55,-0.0,-3.4076695035662596
50,-0.2666666666666666,-2.0,0.4,0.8,-0.0,-3.4076695035662596
