,d_evaluation_1,Argumentativeness_1,Sentence_Coherence_1,Represents_Argument_1,Precision_1,DCG_1,d_evaluation_2_NMR,Argumentativeness_2_NMR,Sentence_Coherence_2_NMR,Represents_Argument_2_NMR,Precision_2_NMR,DCG_2_NMR,d_evaluation_2_NSP,Argumentativeness_2_NSP,Sentence_Coherence_2_NSP,Represents_Argument_2_NSP,Precision_2_NSP,DCG_2_NSP,d_evaluation_2_Partner,Argumentativeness_2_Partner,Sentence_Coherence_2_Partner,Represents_Argument_2_Partner,Precision_2_Partner,DCG_2_Partner
3,-0.9833333333333334,-2.0,-0.9,-0.05,-0.0,-3.40766950356626,-0.4666666666666667,-1.6,0.1,0.1,-0.0,-2.8809312405510568,-0.6,-1.7,0.2,-0.3,-0.125,-2.784306926127221,-0.4666666666666667,-1.6,0.1,0.1,-0.0,-2.8809312405510568
6,-0.4333333333333334,-2.0,0.15,0.55,-0.0,-3.40766950356626,0.3666666666666666,0.8,0.2,0.1,1.3333333333333333,3.93902963498473,0.4333333333333333,0.5,0.5,0.3,-2.0,2.789064826317888,0.3666666666666666,0.8,0.2,0.1,1.3333333333333333,3.93902963498473
9,1.9,2.0,1.8,1.9,1.3333333333333333,18.002997617733847,0.0999999999999999,0.5,-0.3,0.1,inf,2.4340242377576446,0.5,0.9,0.2,0.4,inf,5.266177205234655,0.0999999999999999,0.5,-0.3,0.1,inf,2.4340242377576446
28,-0.1499999999999999,0.55,-0.7,-0.3,3.0,9.234829143886548,0.3666666666666666,0.7,0.0,0.4,1.75,3.3412416540680754,0.6666666666666666,1.0,0.3,0.7,1.75,6.221637392326066,0.3666666666666666,0.7,0.0,0.4,1.75,3.3412416540680754
37,-0.5999999999999999,-2.0,-0.55,0.75,-0.0,-3.40766950356626,0.2,0.2,0.1,0.3,1.75,3.5184605757524934,0.5666666666666667,0.2,0.7,0.8,inf,12.406869187929091,0.2,0.2,0.1,0.3,1.75,3.5184605757524934
39,0.2,1.15,-0.95,0.4,1.75,6.288067026751607,0.0499999999999999,0.35,-0.4,0.2,-0.3333333333333333,1.289064826317888,0.0166666666666666,0.3,0.0,-0.25,-0.3333333333333333,0.6878828028985229,0.0499999999999999,0.35,-0.4,0.2,-0.3333333333333333,1.289064826317888
45,-0.7666666666666666,-2.0,-0.65,0.35,-0.0,-3.40766950356626,0.1,0.3,0.0,0.0,-0.125,0.3333333333333333,0.7666666666666666,0.8,0.85,0.65,3.0,5.052806048854078,0.1,0.3,0.0,0.0,-0.125,0.3333333333333333
47,1.6666666666666667,1.5,1.9,1.6,1.125,11.985138042307812,0.3,0.9,-0.15,0.15,3.0,5.9656755441251885,0.5999999999999999,0.5,0.85,0.45,-0.75,4.27972796369052,0.3,0.9,-0.15,0.15,3.0,5.9656755441251885
48,0.7833333333333333,1.0,0.65,0.7,inf,6.675745842069218,-0.4833333333333334,-1.5,0.0,0.05,-0.0,-2.3987567492278585,-0.1999999999999999,-1.8,0.7,0.5,-0.0,-2.657669503566259,-0.4833333333333334,-1.5,0.0,0.05,-0.0,-2.3987567492278585
49,-0.3833333333333333,-2.0,0.3,0.55,-0.0,-3.40766950356626,-0.05,0.05,-0.2,0.0,-0.125,0.675600894940469,0.3333333333333333,0.35,0.2,0.45,-2.0,2.563362555684107,-0.05,0.05,-0.2,0.0,-0.125,0.675600894940469
