qid stance pair rank score tag
1 PRO "S42b2be2d-Afacaebf6__PREMISE__26,S42b2be2d-Afacaebf6__PREMISE__27" 1 23.78481219249206 PearlBlocklist
1 CON "S9079b088-Aa989e9b1__PREMISE__1,S9079b088-Aa989e9b1__PREMISE__2" 2 23.14886319027409 PearlBlocklist
1 PRO "S1d0e98bb-A593f1bbd__PREMISE__30,S1d0e98bb-A593f1bbd__PREMISE__31" 3 19.049299537953715 PearlBlocklist
1 PRO "Sea0427e-Acc72f881__PREMISE__35,Sea0427e-Acc72f881__PREMISE__37" 4 18.820406289412137 PearlBlocklist
1 CON "Sea0427e-Ab07a750__PREMISE__40,Sea0427e-Ab07a750__PREMISE__41" 5 17.68567643660324 PearlBlocklist
1 CON "Sea0427e-Ad3d31e53__PREMISE__70,Sea0427e-Ad3d31e53__CONC__1" 6 17.65794872377975 PearlBlocklist
1 PRO "S82973dd4-A514627a0__PREMISE__18,S82973dd4-A514627a0__PREMISE__19" 7 17.192951198244682 PearlBlocklist
1 CON "S9079b088-A266eefea__PREMISE__30,S9079b088-A266eefea__PREMISE__35" 8 15.304410983693042 PearlBlocklist
1 CON "S9079b088-A266eefea__PREMISE__24,S9079b088-A266eefea__PREMISE__26" 9 15.292577206325202 PearlBlocklist
1 CON "S42b2be2d-Afd3b9f34__PREMISE__66,S42b2be2d-Afd3b9f34__PREMISE__68" 10 15.056569110159922 PearlBlocklist
2 PRO "Sf76890a8-A863f76fa__PREMISE__26,Sf76890a8-A863f76fa__PREMISE__27" 1 48.39710639134616 PearlBlocklist
2 PRO "Sf76890a8-A863f76fa__PREMISE__51,Sf76890a8-A863f76fa__PREMISE__52" 2 48.38631639453694 PearlBlocklist
2 CON "Sf76890a8-Ab17bdcfe__PREMISE__4,Sf76890a8-Ab17bdcfe__PREMISE__5" 3 43.622439145284154 PearlBlocklist
2 PRO "Sf76890a8-Ace313f29__PREMISE__22,Sf76890a8-Ace313f29__PREMISE__23" 4 36.43370112950581 PearlBlocklist
2 PRO "Sf76890a8-Ace313f29__PREMISE__4,Sf76890a8-Ace313f29__PREMISE__5" 5 36.428723011118166 PearlBlocklist
2 PRO "Sf76890a8-A45fc8ae__PREMISE__12,Sf76890a8-A45fc8ae__PREMISE__13" 6 27.439823097964776 PearlBlocklist
2 CON "S33b011a1-A4b6e44be__PREMISE__41,S33b011a1-A4b6e44be__PREMISE__42" 7 20.56534348408189 PearlBlocklist
2 CON "S33b011a1-A4b6e44be__PREMISE__26,S33b011a1-A4b6e44be__PREMISE__27" 8 20.559473745273767 PearlBlocklist
2 CON "S33b011a1-A4b6e44be__PREMISE__29,S33b011a1-A4b6e44be__PREMISE__31" 9 20.55361398546959 PearlBlocklist
2 CON "S1b21a2f2-Ab8191c9f__PREMISE__35,S1b21a2f2-Ab8191c9f__PREMISE__36" 10 19.469762868604867 PearlBlocklist
3 PRO "S99da1031-A86c533fb__PREMISE__27,S99da1031-A86c533fb__PREMISE__28" 1 36.72459640701762 PearlBlocklist
3 PRO "S99da1031-A86c533fb__PREMISE__2,S99da1031-A86c533fb__PREMISE__3" 2 36.7202960771667 PearlBlocklist
3 PRO "S99da1031-A86c533fb__PREMISE__4,S99da1031-A86c533fb__PREMISE__5" 3 36.67516878719885 PearlBlocklist
3 CON "S637bf47b-A62cc5120__PREMISE__7,S637bf47b-A62cc5120__PREMISE__8" 4 34.24972188169137 PearlBlocklist
3 PRO "Sdebd317e-A26b88e8b__PREMISE__21,Sdebd317e-A26b88e8b__PREMISE__22" 5 31.81766885210395 PearlBlocklist
3 PRO "Sdebd317e-A26b88e8b__PREMISE__35,Sdebd317e-A26b88e8b__PREMISE__37" 6 31.8036181597287 PearlBlocklist
3 PRO "Sdebd317e-A26b88e8b__PREMISE__9,Sdebd317e-A26b88e8b__PREMISE__10" 7 31.797309186642707 PearlBlocklist
3 PRO "Sdebd317e-A26b88e8b__PREMISE__5,Sdebd317e-A26b88e8b__PREMISE__6" 8 31.795554568574033 PearlBlocklist
3 PRO "Sdebd317e-A26b88e8b__PREMISE__27,Sdebd317e-A26b88e8b__PREMISE__28" 9 31.781139797289896 PearlBlocklist
3 PRO "Sdebd317e-A26b88e8b__PREMISE__30,Sdebd317e-A26b88e8b__PREMISE__31" 10 31.772435604874474 PearlBlocklist
4 CON "S951b2ce-A3608b8cf__PREMISE__39,S951b2ce-A3608b8cf__PREMISE__40" 1 21.717844294442713 PearlBlocklist
4 CON "S951b2ce-A3608b8cf__PREMISE__25,S951b2ce-A3608b8cf__PREMISE__27" 2 21.708616900763943 PearlBlocklist
4 CON "S951b2ce-A3608b8cf__PREMISE__13,S951b2ce-A3608b8cf__PREMISE__14" 3 21.706934671683808 PearlBlocklist
4 CON "S951b2ce-A3608b8cf__PREMISE__20,S951b2ce-A3608b8cf__PREMISE__22" 4 21.706733817889063 PearlBlocklist
4 CON "S951b2ce-A3608b8cf__PREMISE__5,S951b2ce-A3608b8cf__PREMISE__6" 5 21.706733817889063 PearlBlocklist
4 CON "S951b2ce-A3608b8cf__PREMISE__7,S951b2ce-A3608b8cf__PREMISE__8" 6 21.70596707958684 PearlBlocklist
4 CON "Sf2b76fe6-A5e4f37aa__PREMISE__12,Sf2b76fe6-A5e4f37aa__PREMISE__16" 7 20.545736539537355 PearlBlocklist
4 CON "Sf2b76fe6-A5e4f37aa__PREMISE__26,Sf2b76fe6-A5e4f37aa__PREMISE__28" 8 20.519952974418956 PearlBlocklist
4 CON "Sbe3c3ddc-Abd9eeb16__PREMISE__5,Sbe3c3ddc-Abd9eeb16__PREMISE__6" 9 18.904658464043546 PearlBlocklist
4 CON "Sbe3c3ddc-Abd9eeb16__PREMISE__31,Sbe3c3ddc-Abd9eeb16__PREMISE__33" 10 18.881175606515225 PearlBlocklist
5 PRO "S26d40999-A5645fd3d__PREMISE__3,S26d40999-A5645fd3d__PREMISE__4" 1 40.33223513245253 PearlBlocklist
5 PRO "S26d40999-A5645fd3d__PREMISE__5,S26d40999-A5645fd3d__PREMISE__6" 2 40.299642382846294 PearlBlocklist
5 PRO "S26d40999-A5645fd3d__PREMISE__7,S26d40999-A5645fd3d__PREMISE__8" 3 40.276165989759505 PearlBlocklist
5 PRO "S1ecb131d-A335550b9__PREMISE__34,S1ecb131d-A335550b9__PREMISE__35" 4 22.902278857708367 PearlBlocklist
5 PRO "Sae6800c0-Abfc5023d__PREMISE__24,Sae6800c0-Abfc5023d__PREMISE__25" 5 17.641814314871937 PearlBlocklist
5 PRO "Sae6800c0-Abfc5023d__PREMISE__60,Sae6800c0-Abfc5023d__PREMISE__62" 6 17.641319971617456 PearlBlocklist
5 PRO "Sae6800c0-Abfc5023d__PREMISE__55,Sae6800c0-Abfc5023d__PREMISE__57" 7 17.641287835745793 PearlBlocklist
5 PRO "Sae6800c0-Abfc5023d__PREMISE__78,Sae6800c0-Abfc5023d__PREMISE__79" 8 17.641287835745793 PearlBlocklist
5 PRO "Sae6800c0-Abfc5023d__PREMISE__65,Sae6800c0-Abfc5023d__PREMISE__66" 9 17.63928958582531 PearlBlocklist
5 PRO "Sae6800c0-Abfc5023d__PREMISE__26,Sae6800c0-Abfc5023d__PREMISE__29" 10 17.63928958582531 PearlBlocklist
6 PRO "S5194bbe-A4fc31978__PREMISE__2,S5194bbe-A4fc31978__PREMISE__3" 1 41.75903653533737 PearlBlocklist
6 PRO "S5194bbe-A4fc31978__PREMISE__15,S5194bbe-A4fc31978__PREMISE__16" 2 41.758697376494155 PearlBlocklist
6 CON "S4d04459a-A1c2ace39__PREMISE__11,S4d04459a-A1c2ace39__PREMISE__12" 3 35.52491875929911 PearlBlocklist
6 CON "S4d04459a-A1c2ace39__PREMISE__26,S4d04459a-A1c2ace39__PREMISE__27" 4 35.51535462316317 PearlBlocklist
6 CON "S4d04459a-A1c2ace39__PREMISE__5,S4d04459a-A1c2ace39__PREMISE__6" 5 35.511756131926276 PearlBlocklist
6 CON "Sd93e6b4a-Ae76ac81b__PREMISE__39,Sd93e6b4a-Ae76ac81b__PREMISE__40" 6 29.92562449055895 PearlBlocklist
6 CON "Sd93e6b4a-Ae76ac81b__PREMISE__48,Sd93e6b4a-Ae76ac81b__PREMISE__49" 7 29.89218469449929 PearlBlocklist
6 CON "Sd93e6b4a-Ae76ac81b__PREMISE__34,Sd93e6b4a-Ae76ac81b__PREMISE__36" 8 29.886410771187442 PearlBlocklist
6 CON "Sddb9f050-Afcda3225__PREMISE__27,Sddb9f050-Afcda3225__PREMISE__28" 9 29.8117824319218 PearlBlocklist
6 PRO "Sfb307db5-A53ae3fce__PREMISE__20,Sfb307db5-A53ae3fce__PREMISE__21" 10 29.529772389712903 PearlBlocklist
7 PRO "S1a13d72d-Af9b3ac89__PREMISE__7,S1a13d72d-Af9b3ac89__PREMISE__8" 1 36.0044902925784 PearlBlocklist
7 PRO "S1a13d72d-Af9b3ac89__PREMISE__9,S1a13d72d-Af9b3ac89__PREMISE__13" 2 35.9861672718371 PearlBlocklist
7 PRO "S1a13d72d-Af9b3ac89__PREMISE__29,S1a13d72d-Af9b3ac89__PREMISE__30" 3 35.97874793649387 PearlBlocklist
7 PRO "S1a13d72d-Af9b3ac89__PREMISE__52,S1a13d72d-Af9b3ac89__PREMISE__53" 4 35.97812103599168 PearlBlocklist
7 PRO "S1a13d72d-Af9b3ac89__PREMISE__39,S1a13d72d-Af9b3ac89__PREMISE__40" 5 35.97775234449736 PearlBlocklist
7 PRO "S1a13d72d-Af9b3ac89__PREMISE__35,S1a13d72d-Af9b3ac89__PREMISE__36" 6 35.97775234449736 PearlBlocklist
7 PRO "S1a13d72d-Af9b3ac89__PREMISE__4,S1a13d72d-Af9b3ac89__PREMISE__6" 7 35.97225883980526 PearlBlocklist
7 PRO "S1a13d72d-Af9b3ac89__PREMISE__26,S1a13d72d-Af9b3ac89__PREMISE__27" 8 35.96935708665167 PearlBlocklist
7 CON "S1a13d72d-A5f6834c9__PREMISE__12,S1a13d72d-A5f6834c9__PREMISE__13" 9 34.70433927239683 PearlBlocklist
7 CON "S1a13d72d-A5f6834c9__PREMISE__14,S1a13d72d-A5f6834c9__PREMISE__15" 10 34.697176917997794 PearlBlocklist
8 PRO "Sae7c3aca-Ab7e003fd__PREMISE__77,Sae7c3aca-Ab7e003fd__PREMISE__78" 1 44.08277403342709 PearlBlocklist
8 PRO "Sae7c3aca-Ab7e003fd__PREMISE__16,Sae7c3aca-Ab7e003fd__PREMISE__17" 2 44.0655252600439 PearlBlocklist
8 PRO "Sae7c3aca-Ab7e003fd__PREMISE__33,Sae7c3aca-Ab7e003fd__PREMISE__34" 3 44.06230277781557 PearlBlocklist
8 PRO "Sae7c3aca-Ab7e003fd__PREMISE__28,Sae7c3aca-Ab7e003fd__PREMISE__29" 4 44.05480675042591 PearlBlocklist
8 PRO "Sae7c3aca-Ab7e003fd__PREMISE__59,Sae7c3aca-Ab7e003fd__PREMISE__60" 5 44.05212055061507 PearlBlocklist
8 PRO "Sae7c3aca-Ab7e003fd__PREMISE__13,Sae7c3aca-Ab7e003fd__PREMISE__14" 6 44.05201731217855 PearlBlocklist
8 CON "Sae7c3aca-A43208fb5__PREMISE__27,Sae7c3aca-A43208fb5__PREMISE__29" 7 40.82303141791592 PearlBlocklist
8 CON "Sae7c3aca-A43208fb5__PREMISE__30,Sae7c3aca-A43208fb5__PREMISE__31" 8 40.81118475304848 PearlBlocklist
8 CON "Sae7c3aca-A43208fb5__PREMISE__56,Sae7c3aca-A43208fb5__PREMISE__57" 9 40.78466593430095 PearlBlocklist
8 CON "Sae7c3aca-A43208fb5__PREMISE__45,Sae7c3aca-A43208fb5__PREMISE__46" 10 40.7836715723169 PearlBlocklist
9 PRO "S68fec0d0-A2d91d201__PREMISE__29,S68fec0d0-A2d91d201__PREMISE__30" 1 31.415898321111776 PearlBlocklist
9 PRO "S8883e889-A95157d1a__PREMISE__14,S8883e889-A95157d1a__PREMISE__15" 2 23.604224488640615 PearlBlocklist
9 PRO "S8883e889-A95157d1a__PREMISE__19,S8883e889-A95157d1a__PREMISE__21" 3 23.550990795666795 PearlBlocklist
9 CON "Sd20d622f-A57c83ea__PREMISE__3,Sd20d622f-A57c83ea__PREMISE__4" 4 23.475106594924988 PearlBlocklist
9 PRO "Sd20d622f-A52a4a0b2__PREMISE__47,Sd20d622f-A52a4a0b2__PREMISE__48" 5 22.617165597937625 PearlBlocklist
9 PRO "Sd20d622f-A52a4a0b2__PREMISE__5,Sd20d622f-A52a4a0b2__PREMISE__6" 6 22.57111603633793 PearlBlocklist
9 PRO "S1c99b013-A781a7913__PREMISE__73,S1c99b013-A781a7913__PREMISE__74" 7 22.209397095552582 PearlBlocklist
9 CON "S5f54eb74-Af7ad83df__PREMISE__15,S5f54eb74-Af7ad83df__PREMISE__16" 8 21.963051515913044 PearlBlocklist
9 CON "S5f54eb74-Af7ad83df__PREMISE__24,S5f54eb74-Af7ad83df__PREMISE__25" 9 21.942540476256614 PearlBlocklist
9 CON "S5f54eb74-Af7ad83df__PREMISE__27,S5f54eb74-Af7ad83df__PREMISE__28" 10 21.93437492507167 PearlBlocklist
10 CON "Sf4135ff7-A4b294367__PREMISE__4,Sf4135ff7-A4b294367__PREMISE__6" 1 32.816476067616584 PearlBlocklist
10 CON "Sdfae64e7-Adb0ec3c6__PREMISE__24,Sdfae64e7-Adb0ec3c6__PREMISE__26" 2 25.98015662594215 PearlBlocklist
10 CON "Sdfae64e7-Adb0ec3c6__PREMISE__17,Sdfae64e7-Adb0ec3c6__PREMISE__18" 3 25.966357051945476 PearlBlocklist
10 CON "Sdfae64e7-A9016c4bb__PREMISE__32,Sdfae64e7-A9016c4bb__PREMISE__33" 4 25.048239325704827 PearlBlocklist
10 CON "Sdfae64e7-A9016c4bb__PREMISE__3,Sdfae64e7-A9016c4bb__PREMISE__4" 5 25.029008936482906 PearlBlocklist
10 CON "Sdfae64e7-A121f5403__PREMISE__19,Sdfae64e7-A121f5403__PREMISE__20" 6 20.280121808533607 PearlBlocklist
10 CON "S431b936a-A8ce7c650__PREMISE__3,S431b936a-A8ce7c650__PREMISE__4" 7 18.880995564324607 PearlBlocklist
10 PRO "Sfe121720-A4a3fcf5f__PREMISE__6,Sfe121720-A4a3fcf5f__PREMISE__7" 8 18.665515914722583 PearlBlocklist
10 CON "S431b936a-A526547d6__PREMISE__50,S431b936a-A526547d6__PREMISE__53" 9 17.107555118724576 PearlBlocklist
10 CON "S431b936a-A526547d6__PREMISE__7,S431b936a-A526547d6__PREMISE__9" 10 17.106672919870796 PearlBlocklist
