id,query
3,Should Insider Trading Be Allowed?
6,Is a College Education Worth It?
9,Should Students Have to Wear School Uniforms?
28,Should Prostitution Be Legal?
37,Is Cell Phone Radiation Safe?
39,Should the Federal Minimum Wage Be Increased?
45,Should the Penny Stay in Circulation?
47,Is Homework Beneficial?
48,Should the the Voting Age be Lowered?
49,Should Body Cameras be Mandatory for Police?
